Case #1: 53
Case #2: 37
Case #3: 6
Case #4: 32
Case #5: 43
Case #6: 15
Case #7: 2
Case #8: 47
Case #9: 43
Case #10: 54
Case #11: 14
Case #12: 18
Case #13: 71
Case #14: 55
Case #15: 28
Case #16: 3
Case #17: 1
Case #18: 39
Case #19: 37
Case #20: 32
Case #21: 67
Case #22: 70
Case #23: 54
Case #24: 20
Case #25: 68
Case #26: 70
Case #27: 8
Case #28: 24
Case #29: 57
Case #30: 36
Case #31: 9
Case #32: 19
Case #33: 25
Case #34: 72
Case #35: 26
Case #36: 45
Case #37: 2
Case #38: 72
Case #39: 10
Case #40: 43
Case #41: 2
Case #42: 44
Case #43: 30
Case #44: 9
Case #45: 63
Case #46: 16
Case #47: 69
Case #48: 68
Case #49: 34
Case #50: 7
Case #51: 60
Case #52: 65
Case #53: 33
Case #54: 66
Case #55: 43
Case #56: 57
Case #57: 19
Case #58: 40
Case #59: 62
Case #60: 40
Case #61: 65
Case #62: 56
Case #63: 41
Case #64: 64
Case #65: 2
Case #66: 68
Case #67: 60
Case #68: 19
Case #69: 1
Case #70: 31
Case #71: 56
Case #72: 13
Case #73: 13
Case #74: 52
Case #75: 53
Case #76: 1
Case #77: 55
Case #78: 20
Case #79: 23
Case #80: 47
Case #81: 33
Case #82: 31
Case #83: 63
Case #84: 17
Case #85: 53
Case #86: 63
Case #87: 47
Case #88: 33
Case #89: 26
Case #90: 66
Case #91: 57
Case #92: 42
Case #93: 33
Case #94: 57
Case #95: 38
Case #96: 40
Case #97: 13
Case #98: 26
Case #99: 65
Case #100: 35
Case #101: 76
Case #102: 54
Case #103: 8
Case #104: 57
Case #105: 16
Case #106: 25
Case #107: 65
Case #108: 60
Case #109: 10
Case #110: 25
Case #111: 15
Case #112: 56
Case #113: 46
Case #114: 1
Case #115: 59
Case #116: 52
Case #117: 33
Case #118: 7
Case #119: 30
Case #120: 19
Case #121: 48
Case #122: 38
Case #123: 54
Case #124: 39
Case #125: 3
Case #126: 44
Case #127: 40
Case #128: 53
Case #129: 12
Case #130: 32
Case #131: 70
Case #132: 16
Case #133: 17
Case #134: 54
Case #135: 7
Case #136: 3
Case #137: 63
Case #138: 38
Case #139: 72
Case #140: 62
Case #141: 23
Case #142: 46
Case #143: 57
Case #144: 56
Case #145: 23
Case #146: 54
Case #147: 68
Case #148: 24
Case #149: 66
Case #150: 20
Case #151: 56
Case #152: 17
Case #153: 64
Case #154: 3
Case #155: 14
Case #156: 13
Case #157: 23
Case #158: 72
Case #159: 57
Case #160: 59
Case #161: 16
Case #162: 35
Case #163: 38
Case #164: 69
Case #165: 37
Case #166: 22
Case #167: 20
Case #168: 47
Case #169: 69
Case #170: 5
Case #171: 75
Case #172: 62
Case #173: 73
Case #174: 39
Case #175: 45
Case #176: 40
Case #177: 8
Case #178: 9
Case #179: 6
Case #180: 9
Case #181: 24
Case #182: 37
Case #183: 8
Case #184: 44
Case #185: 7
Case #186: 2
Case #187: 61
Case #188: 39
Case #189: 65
Case #190: 67
Case #191: 15
Case #192: 54
Case #193: 53
Case #194: 47
Case #195: 45
Case #196: 42
Case #197: 56
Case #198: 20
Case #199: 1
Case #200: 22
Case #201: 52
Case #202: 75
Case #203: 72
Case #204: 35
Case #205: 54
Case #206: 2
Case #207: 68
Case #208: 70
Case #209: 55
Case #210: 38
Case #211: 21
Case #212: 43
Case #213: 57
Case #214: 38
Case #215: 57
Case #216: 42
Case #217: 46
Case #218: 12
Case #219: 23
Case #220: 71
Case #221: 23
Case #222: 65
Case #223: 33
Case #224: 28
Case #225: 62
Case #226: 21
Case #227: 76
Case #228: 50
Case #229: 71
Case #230: 12
Case #231: 45
Case #232: 6
Case #233: 47
Case #234: 66
Case #235: 10
Case #236: 7
Case #237: 21
Case #238: 10
Case #239: 42
Case #240: 5
Case #241: 8
Case #242: 22
Case #243: 71
Case #244: 36
Case #245: 11
Case #246: 52
Case #247: 63
Case #248: 62
Case #249: 61
Case #250: 49
Case #251: 44
Case #252: 51
Case #253: 40
Case #254: 3
Case #255: 13
Case #256: 27
Case #257: 30
Case #258: 6
Case #259: 3
Case #260: 12
Case #261: 15
Case #262: 51
Case #263: 47
Case #264: 19
Case #265: 64
Case #266: 67
Case #267: 8
Case #268: 23
Case #269: 45
Case #270: 34
Case #271: 16
Case #272: 57
Case #273: 9
Case #274: 60
Case #275: 63
Case #276: 22
Case #277: 50
Case #278: 59
Case #279: 66
Case #280: 69
Case #281: 29
Case #282: 75
Case #283: 61
Case #284: 50
Case #285: 14
Case #286: 47
Case #287: 28
Case #288: 51
Case #289: 75
Case #290: 24
Case #291: 16
Case #292: 23
Case #293: 74
Case #294: 9
Case #295: 56
Case #296: 47
Case #297: 2
Case #298: 16
Case #299: 30
Case #300: 2
Case #301: 45
Case #302: 43
Case #303: 1
Case #304: 26
Case #305: 23
Case #306: 55
Case #307: 26
Case #308: 17
Case #309: 29
Case #310: 21
Case #311: 37
Case #312: 43
Case #313: 10
Case #314: 48
Case #315: 48
Case #316: 43
Case #317: 18
Case #318: 11
Case #319: 59
Case #320: 59
Case #321: 51
Case #322: 40
Case #323: 58
Case #324: 63
Case #325: 67
Case #326: 45
Case #327: 43
Case #328: 19
Case #329: 7
Case #330: 10
Case #331: 40
Case #332: 67
Case #333: 4
Case #334: 24
Case #335: 63
Case #336: 71
Case #337: 53
Case #338: 16
Case #339: 72
Case #340: 36
Case #341: 37
Case #342: 68
Case #343: 45
Case #344: 1
Case #345: 63
Case #346: 15
Case #347: 38
Case #348: 18
Case #349: 59
Case #350: 38
Case #351: 65
Case #352: 43
Case #353: 20
Case #354: 2
Case #355: 57
Case #356: 67
Case #357: 26
Case #358: 54
Case #359: 36
Case #360: 68
Case #361: 16
Case #362: 68
Case #363: 19
Case #364: 30
Case #365: 22
Case #366: 13
Case #367: 44
Case #368: 34
Case #369: 58
Case #370: 16
Case #371: 29
Case #372: 56
Case #373: 53
Case #374: 12
Case #375: 55
Case #376: 12
Case #377: 27
Case #378: 48
Case #379: 28
Case #380: 3
Case #381: 11
Case #382: 56
Case #383: 15
Case #384: 12
Case #385: 2
Case #386: 70
Case #387: 23
Case #388: 34
Case #389: 48
Case #390: 42
Case #391: 21
Case #392: 52
Case #393: 48
Case #394: 14
Case #395: 58
Case #396: 4
Case #397: 73
Case #398: 71
Case #399: 60
Case #400: 72
Case #401: 39
Case #402: 72
Case #403: 25
Case #404: 68
Case #405: 3
Case #406: 46
Case #407: 23
Case #408: 55
Case #409: 9
Case #410: 68
Case #411: 29
Case #412: 29
Case #413: 67
Case #414: 3
Case #415: 58
Case #416: 57
Case #417: 47
Case #418: 24
Case #419: 56
Case #420: 21
Case #421: 4
Case #422: 27
Case #423: 8
Case #424: 4
Case #425: 56
Case #426: 2
Case #427: 17
Case #428: 14
Case #429: 10
Case #430: 11
Case #431: 8
Case #432: 5
Case #433: 11
Case #434: 64
Case #435: 67
Case #436: 53
Case #437: 54
Case #438: 1
Case #439: 20
Case #440: 55
Case #441: 44
Case #442: 73
Case #443: 21
Case #444: 56
Case #445: 22
Case #446: 1
Case #447: 60
Case #448: 7
Case #449: 52
Case #450: 5
Case #451: 16
Case #452: 13
Case #453: 43
Case #454: 61
Case #455: 30
Case #456: 23
Case #457: 65
Case #458: 19
Case #459: 66
Case #460: 67
Case #461: 20
Case #462: 29
Case #463: 44
Case #464: 55
Case #465: 34
Case #466: 69
Case #467: 11
Case #468: 64
Case #469: 69
Case #470: 69
Case #471: 54
Case #472: 14
Case #473: 32
Case #474: 8
Case #475: 30
Case #476: 35
Case #477: 30
Case #478: 52
Case #479: 21
Case #480: 20
Case #481: 54
Case #482: 3
Case #483: 21
Case #484: 55
Case #485: 64
Case #486: 67
Case #487: 11
Case #488: 33
Case #489: 59
Case #490: 12
Case #491: 44
Case #492: 20
Case #493: 25
Case #494: 57
Case #495: 1
Case #496: 60
Case #497: 59
Case #498: 12
Case #499: 29
Case #500: 12
