Case #1: 58
Case #2: 54
Case #3: 33
Case #4: 18
Case #5: 8
Case #6: 3
Case #7: 8
Case #8: 2
Case #9: 72
Case #10: 60
Case #11: 64
Case #12: 64
Case #13: 48
Case #14: 39
Case #15: 73
Case #16: 13
Case #17: 64
Case #18: 61
Case #19: 46
Case #20: 48
Case #21: 40
Case #22: 8
Case #23: 31
Case #24: 2
Case #25: 26
Case #26: 45
Case #27: 15
Case #28: 5
Case #29: 47
Case #30: 35
Case #31: 37
Case #32: 26
Case #33: 65
Case #34: 1
Case #35: 12
Case #36: 18
Case #37: 34
Case #38: 30
Case #39: 11
Case #40: 77
Case #41: 60
Case #42: 1
Case #43: 43
Case #44: 38
Case #45: 66
Case #46: 50
Case #47: 29
Case #48: 2
Case #49: 7
Case #50: 59
Case #51: 61
Case #52: 57
Case #53: 29
Case #54: 28
Case #55: 31
Case #56: 52
Case #57: 69
Case #58: 8
Case #59: 60
Case #60: 12
Case #61: 66
Case #62: 50
Case #63: 36
Case #64: 39
Case #65: 68
Case #66: 44
Case #67: 23
Case #68: 2
Case #69: 46
Case #70: 14
Case #71: 23
Case #72: 61
Case #73: 45
Case #74: 32
Case #75: 36
Case #76: 50
Case #77: 10
Case #78: 24
Case #79: 13
Case #80: 68
Case #81: 56
Case #82: 5
Case #83: 19
Case #84: 55
Case #85: 20
Case #86: 53
Case #87: 4
Case #88: 2
Case #89: 75
Case #90: 9
Case #91: 14
Case #92: 17
Case #93: 62
Case #94: 25
Case #95: 18
Case #96: 44
Case #97: 59
Case #98: 57
Case #99: 30
Case #100: 45
Case #101: 43
Case #102: 46
Case #103: 8
Case #104: 34
Case #105: 16
Case #106: 15
Case #107: 23
Case #108: 70
Case #109: 10
Case #110: 14
Case #111: 65
Case #112: 30
Case #113: 54
Case #114: 21
Case #115: 38
Case #116: 45
Case #117: 2
Case #118: 72
Case #119: 40
Case #120: 54
Case #121: 58
Case #122: 34
Case #123: 76
Case #124: 27
Case #125: 14
Case #126: 42
Case #127: 18
Case #128: 40
Case #129: 43
Case #130: 10
Case #131: 24
Case #132: 69
Case #133: 7
Case #134: 8
Case #135: 61
Case #136: 9
Case #137: 7
Case #138: 61
Case #139: 8
Case #140: 38
Case #141: 42
Case #142: 41
Case #143: 31
Case #144: 65
Case #145: 65
Case #146: 6
Case #147: 29
Case #148: 14
Case #149: 64
Case #150: 74
Case #151: 48
Case #152: 21
Case #153: 63
Case #154: 75
Case #155: 10
Case #156: 16
Case #157: 17
Case #158: 19
Case #159: 36
Case #160: 47
Case #161: 3
Case #162: 47
Case #163: 11
Case #164: 24
Case #165: 30
Case #166: 35
Case #167: 19
Case #168: 34
Case #169: 43
Case #170: 17
Case #171: 12
Case #172: 63
Case #173: 60
Case #174: 74
Case #175: 29
Case #176: 16
Case #177: 15
Case #178: 72
Case #179: 34
Case #180: 54
Case #181: 72
Case #182: 12
Case #183: 26
Case #184: 20
Case #185: 17
Case #186: 21
Case #187: 6
Case #188: 25
Case #189: 20
Case #190: 25
Case #191: 9
Case #192: 40
Case #193: 26
Case #194: 43
Case #195: 9
Case #196: 41
Case #197: 38
Case #198: 45
Case #199: 12
Case #200: 48
Case #201: 2
Case #202: 11
Case #203: 43
Case #204: 8
Case #205: 23
Case #206: 59
Case #207: 54
Case #208: 57
Case #209: 2
Case #210: 9
Case #211: 61
Case #212: 61
Case #213: 3
Case #214: 9
Case #215: 36
Case #216: 30
Case #217: 60
Case #218: 48
Case #219: 12
Case #220: 28
Case #221: 33
Case #222: 56
Case #223: 72
Case #224: 31
Case #225: 56
Case #226: 45
Case #227: 25
Case #228: 33
Case #229: 67
Case #230: 42
Case #231: 74
Case #232: 21
Case #233: 15
Case #234: 58
Case #235: 60
Case #236: 56
Case #237: 57
Case #238: 26
Case #239: 23
Case #240: 11
Case #241: 43
Case #242: 51
Case #243: 26
Case #244: 42
Case #245: 1
Case #246: 23
Case #247: 56
Case #248: 31
Case #249: 34
Case #250: 13
Case #251: 75
Case #252: 50
Case #253: 19
Case #254: 10
Case #255: 42
Case #256: 12
Case #257: 66
Case #258: 65
Case #259: 49
Case #260: 43
Case #261: 23
Case #262: 44
Case #263: 27
Case #264: 45
Case #265: 3
Case #266: 17
Case #267: 7
Case #268: 66
Case #269: 24
Case #270: 28
Case #271: 64
Case #272: 45
Case #273: 26
Case #274: 16
Case #275: 39
Case #276: 4
Case #277: 16
Case #278: 66
Case #279: 25
Case #280: 54
Case #281: 69
Case #282: 4
Case #283: 57
Case #284: 72
Case #285: 47
Case #286: 68
Case #287: 6
Case #288: 52
Case #289: 58
Case #290: 37
Case #291: 1
Case #292: 11
Case #293: 23
Case #294: 69
Case #295: 49
Case #296: 65
Case #297: 26
Case #298: 13
Case #299: 27
Case #300: 1
Case #301: 12
Case #302: 21
Case #303: 5
Case #304: 1
Case #305: 4
Case #306: 40
Case #307: 61
Case #308: 67
Case #309: 53
Case #310: 56
Case #311: 41
Case #312: 37
Case #313: 9
Case #314: 49
Case #315: 22
Case #316: 25
Case #317: 58
Case #318: 30
Case #319: 10
Case #320: 41
Case #321: 69
Case #322: 41
Case #323: 54
Case #324: 25
Case #325: 70
Case #326: 39
Case #327: 50
Case #328: 57
Case #329: 9
Case #330: 22
Case #331: 72
Case #332: 19
Case #333: 72
Case #334: 69
Case #335: 30
Case #336: 75
Case #337: 52
Case #338: 35
Case #339: 66
Case #340: 5
Case #341: 66
Case #342: 54
Case #343: 37
Case #344: 55
Case #345: 63
Case #346: 2
Case #347: 43
Case #348: 29
Case #349: 44
Case #350: 3
Case #351: 54
Case #352: 63
Case #353: 55
Case #354: 1
Case #355: 6
Case #356: 76
Case #357: 41
Case #358: 68
Case #359: 13
Case #360: 55
Case #361: 37
Case #362: 30
Case #363: 21
Case #364: 53
Case #365: 28
Case #366: 68
Case #367: 57
Case #368: 12
Case #369: 33
Case #370: 12
Case #371: 60
Case #372: 50
Case #373: 69
Case #374: 13
Case #375: 20
Case #376: 16
Case #377: 71
Case #378: 46
Case #379: 16
Case #380: 21
Case #381: 1
Case #382: 19
Case #383: 49
Case #384: 66
Case #385: 52
Case #386: 47
Case #387: 15
Case #388: 16
Case #389: 4
Case #390: 36
Case #391: 36
Case #392: 20
Case #393: 54
Case #394: 65
Case #395: 10
Case #396: 22
Case #397: 17
Case #398: 34
Case #399: 18
Case #400: 14
Case #401: 2
Case #402: 47
Case #403: 37
Case #404: 39
Case #405: 26
Case #406: 75
Case #407: 59
Case #408: 45
Case #409: 77
Case #410: 6
Case #411: 29
Case #412: 3
Case #413: 71
Case #414: 66
Case #415: 26
Case #416: 15
Case #417: 56
Case #418: 38
Case #419: 11
Case #420: 25
Case #421: 8
Case #422: 23
Case #423: 11
Case #424: 2
Case #425: 29
Case #426: 55
Case #427: 13
Case #428: 62
Case #429: 68
Case #430: 18
Case #431: 68
Case #432: 35
Case #433: 73
Case #434: 38
Case #435: 37
Case #436: 73
Case #437: 43
Case #438: 14
Case #439: 50
Case #440: 37
Case #441: 60
Case #442: 4
Case #443: 40
Case #444: 18
Case #445: 44
Case #446: 55
Case #447: 66
Case #448: 6
Case #449: 75
Case #450: 73
Case #451: 21
Case #452: 52
Case #453: 55
Case #454: 48
Case #455: 16
Case #456: 65
Case #457: 57
Case #458: 21
Case #459: 76
Case #460: 65
Case #461: 45
Case #462: 68
Case #463: 35
Case #464: 1
Case #465: 42
Case #466: 56
Case #467: 26
Case #468: 60
Case #469: 28
Case #470: 30
Case #471: 12
Case #472: 37
Case #473: 47
Case #474: 38
Case #475: 72
Case #476: 15
Case #477: 16
Case #478: 1
Case #479: 8
Case #480: 42
Case #481: 2
Case #482: 65
Case #483: 6
Case #484: 70
Case #485: 66
Case #486: 38
Case #487: 74
Case #488: 19
Case #489: 64
Case #490: 24
Case #491: 2
Case #492: 32
Case #493: 32
Case #494: 67
Case #495: 41
Case #496: 60
Case #497: 25
Case #498: 63
Case #499: 42
Case #500: 62
